#
#
#

newmtl _SoulSpear_MAT
illum 2
Ka 0.800000 0.800000 0.800000
Kd 0.800000 0.800000 0.800000
Ks 0.900000 0.900000 0.900000
Ns 26.000000
map_Kd soulspear_diffuse.tga
map_Ks soulspear_specular.tga
bump soulspear_normal.tga
